# Blender v2.78 (sub 0) OBJ File: ''
# www.blender.org
mtllib pickup.mtl
o Cube
v 1.000000 -1.000000 -1.000000
v 1.000000 -1.000000 1.000000
v -1.000000 -1.000000 1.000000
v -1.000000 -1.000000 -1.000000
v 1.000000 1.000000 -0.999999
v 0.999999 1.000000 1.000001
v -1.000000 1.000000 1.000000
v -1.000000 1.000000 -1.000000
vn 0.0000 -1.0000 0.0000
vn 0.0000 1.0000 0.0000
vn 1.0000 0.0000 0.0000
vn -0.0000 -0.0000 1.0000
vn -1.0000 -0.0000 -0.0000
vn 0.0000 0.0000 -1.0000
vt 00.00000 00.00000
vt 01.00000 00.00000
vt 01.00000 01.00000
vt 00.00000 01.00000
usemtl Pickup
s off
f 1/1/1 2/2/1 3/3/1 4/4/1
f 5/2/2 8/1/2 7/4/2 6/3/2
f 1/1/3 5/4/3 6/3/3 2/2/3
f 2/4/4 6/3/4 7/2/4 3/1/4
f 3/4/5 7/3/5 8/2/5 4/1/5
f 5/3/6 1/4/6 4/1/6 8/2/6
