# Blender MTL File: 'None'
# Material Count: 1

newmtl Pickup
Ns 10
Ka 1.000000 1.000000 1.000000
Kd 0.640000 0.640000 0.640000
Ks 0.500000 0.500000 0.500000
Ke 0.000000 0.000000 0.000000
Ni 1.000000
d 1.000000
illum 2
map_Ka whitebordered.png