# Blender v2.78 (sub 0) OBJ File: 'player.blend'
# www.blender.org
mtllib player.mtl
o Cylinder
v 0.000000 -1.000000 -1.000000
v 0.000000 1.000000 -1.000000
v 0.195090 -1.000000 -0.980785
v 0.195090 1.000000 -0.980785
v 0.382683 -1.000000 -0.923880
v 0.382683 1.000000 -0.923880
v 0.555570 -1.000000 -0.831470
v 0.555570 1.000000 -0.831470
v 0.707107 -1.000000 -0.707107
v 0.707107 1.000000 -0.707107
v 0.831470 -1.000000 -0.555570
v 0.831470 1.000000 -0.555570
v 0.923880 -1.000000 -0.382683
v 0.923880 1.000000 -0.382683
v 0.980785 -1.000000 -0.195090
v 0.980785 1.000000 -0.195090
v 1.000000 -1.000000 -0.000000
v 1.000000 1.000000 -0.000000
v 0.980785 -1.000000 0.195090
v 0.980785 1.000000 0.195090
v 0.923880 -1.000000 0.382683
v 0.923880 1.000000 0.382683
v 0.831470 -1.000000 0.555570
v 0.831470 1.000000 0.555570
v 0.707107 -1.000000 0.707107
v 0.707107 1.000000 0.707107
v 0.555570 -1.000000 0.831470
v 0.555570 1.000000 0.831470
v 0.382683 -1.000000 0.923880
v 0.382683 1.000000 0.923880
v 0.195090 -1.000000 0.980785
v 0.195090 1.000000 0.980785
v -0.000000 -1.000000 1.000000
v -0.000000 1.000000 1.000000
v -0.195091 -1.000000 0.980785
v -0.195091 1.000000 0.980785
v -0.382684 -1.000000 0.923879
v -0.382684 1.000000 0.923879
v -0.555571 -1.000000 0.831469
v -0.555571 1.000000 0.831469
v -0.707107 -1.000000 0.707106
v -0.707107 1.000000 0.707106
v -0.831470 -1.000000 0.555570
v -0.831470 1.000000 0.555570
v -0.923880 -1.000000 0.382683
v -0.923880 1.000000 0.382683
v -0.980785 -1.000000 0.195089
v -0.980785 1.000000 0.195089
v -1.000000 -1.000000 -0.000001
v -1.000000 1.000000 -0.000001
v -0.980785 -1.000000 -0.195091
v -0.980785 1.000000 -0.195091
v -0.923879 -1.000000 -0.382684
v -0.923879 1.000000 -0.382684
v -0.831469 -1.000000 -0.555571
v -0.831469 1.000000 -0.555571
v -0.707106 -1.000000 -0.707108
v -0.707106 1.000000 -0.707108
v -0.555569 -1.000000 -0.831470
v -0.555569 1.000000 -0.831470
v -0.382682 -1.000000 -0.923880
v -0.382682 1.000000 -0.923880
v -0.195089 -1.000000 -0.980786
v -0.195089 1.000000 -0.980786
vt 0.3801 0.6911
vt 0.3385 0.3475
vt 0.3390 0.3489
vt 0.4467 0.6778
vt 0.3398 0.3503
vt 0.5096 0.6519
vt 0.3409 0.3515
vt 0.5662 0.6142
vt 0.3421 0.3524
vt 0.6144 0.5661
vt 0.3435 0.3531
vt 0.6523 0.5096
vt 0.3450 0.3535
vt 0.6785 0.4467
vt 0.3465 0.3536
vt 0.6920 0.3798
vt 0.3481 0.3534
vt 0.6921 0.3116
vt 0.3495 0.3529
vt 0.6787 0.2447
vt 0.3508 0.3521
vt 0.6525 0.1818
vt 0.3520 0.3510
vt 0.6146 0.1252
vt 0.3529 0.3498
vt 0.5664 0.0771
vt 0.3536 0.3484
vt 0.5097 0.0394
vt 0.3539 0.3468
vt 0.4468 0.0134
vt 0.3540 0.3453
vt 0.3801 0.0001
vt 0.3538 0.3437
vt 0.3121 0.0001
vt 0.3532 0.3423
vt 0.2454 0.0134
vt 0.3524 0.3409
vt 0.1825 0.0394
vt 0.3514 0.3397
vt 0.1259 0.0771
vt 0.3501 0.3388
vt 0.0777 0.1252
vt 0.3487 0.3381
vt 0.0398 0.1817
vt 0.3472 0.3377
vt 0.0136 0.2446
vt 0.3457 0.3376
vt 0.0002 0.3115
vt 0.3442 0.3378
vt 0.0001 0.3797
vt 0.3427 0.3383
vt 0.0136 0.4465
vt 0.3414 0.3391
vt 0.0398 0.5095
vt 0.3402 0.3401
vt 0.0778 0.5661
vt 0.3393 0.3414
vt 0.1260 0.6141
vt 0.3387 0.3428
vt 0.1826 0.6519
vt 0.3383 0.3443
vt 0.2455 0.6778
vt 0.4784 0.9999
vt 0.4480 0.9999
vt 0.4182 0.9939
vt 0.3901 0.9823
vt 0.3649 0.9654
vt 0.3434 0.9439
vt 0.3265 0.9187
vt 0.3149 0.8906
vt 0.3089 0.8608
vt 0.3089 0.8304
vt 0.3149 0.8006
vt 0.3265 0.7725
vt 0.3434 0.7472
vt 0.3649 0.7258
vt 0.3901 0.7089
vt 0.4182 0.6972
vt 0.4480 0.6913
vt 0.4784 0.6913
vt 0.5082 0.6972
vt 0.5363 0.7089
vt 0.5616 0.7258
vt 0.5831 0.7472
vt 0.5999 0.7725
vt 0.6116 0.8006
vt 0.6175 0.8304
vt 0.6175 0.8608
vt 0.6116 0.8906
vt 0.5999 0.9187
vt 0.5831 0.9439
vt 0.5616 0.9654
vt 0.5363 0.9823
vt 0.5082 0.9939
vt 0.3382 0.3459
vt 0.3122 0.6911
vt 0.1392 0.6913
vt 0.1696 0.6913
vt 0.1994 0.6972
vt 0.2275 0.7089
vt 0.2528 0.7258
vt 0.2742 0.7472
vt 0.2911 0.7725
vt 0.3028 0.8006
vt 0.3087 0.8304
vt 0.3087 0.8608
vt 0.3028 0.8906
vt 0.2911 0.9187
vt 0.2742 0.9439
vt 0.2528 0.9654
vt 0.2275 0.9823
vt 0.1994 0.9939
vt 0.1696 0.9999
vt 0.1392 0.9999
vt 0.1094 0.9939
vt 0.0813 0.9823
vt 0.0561 0.9654
vt 0.0346 0.9439
vt 0.0177 0.9187
vt 0.0061 0.8906
vt 0.0001 0.8608
vt 0.0001 0.8304
vt 0.0061 0.8006
vt 0.0177 0.7725
vt 0.0346 0.7472
vt 0.0561 0.7258
vt 0.0813 0.7089
vt 0.1094 0.6972
vn 0.0980 0.0000 -0.9952
vn 0.2903 0.0000 -0.9569
vn 0.4714 0.0000 -0.8819
vn 0.6344 0.0000 -0.7730
vn 0.7730 0.0000 -0.6344
vn 0.8819 0.0000 -0.4714
vn 0.9569 0.0000 -0.2903
vn 0.9952 0.0000 -0.0980
vn 0.9952 0.0000 0.0980
vn 0.9569 0.0000 0.2903
vn 0.8819 0.0000 0.4714
vn 0.7730 0.0000 0.6344
vn 0.6344 0.0000 0.7730
vn 0.4714 0.0000 0.8819
vn 0.2903 0.0000 0.9569
vn 0.0980 0.0000 0.9952
vn -0.0980 0.0000 0.9952
vn -0.2903 0.0000 0.9569
vn -0.4714 0.0000 0.8819
vn -0.6344 0.0000 0.7730
vn -0.7730 0.0000 0.6344
vn -0.8819 0.0000 0.4714
vn -0.9569 0.0000 0.2903
vn -0.9952 0.0000 0.0980
vn -0.9952 0.0000 -0.0980
vn -0.9569 0.0000 -0.2903
vn -0.8819 0.0000 -0.4714
vn -0.7730 0.0000 -0.6344
vn -0.6344 0.0000 -0.7730
vn -0.4714 0.0000 -0.8819
vn 0.0000 1.0000 0.0000
vn -0.2903 0.0000 -0.9569
vn -0.0980 0.0000 -0.9952
vn 0.0000 -1.0000 -0.0000
usemtl Player
s off
f 1/1/1 2/2/1 4/3/1 3/4/1
f 3/4/2 4/3/2 6/5/2 5/6/2
f 5/6/3 6/5/3 8/7/3 7/8/3
f 7/8/4 8/7/4 10/9/4 9/10/4
f 9/10/5 10/9/5 12/11/5 11/12/5
f 11/12/6 12/11/6 14/13/6 13/14/6
f 13/14/7 14/13/7 16/15/7 15/16/7
f 15/16/8 16/15/8 18/17/8 17/18/8
f 17/18/9 18/17/9 20/19/9 19/20/9
f 19/20/10 20/19/10 22/21/10 21/22/10
f 21/22/11 22/21/11 24/23/11 23/24/11
f 23/24/12 24/23/12 26/25/12 25/26/12
f 25/26/13 26/25/13 28/27/13 27/28/13
f 27/28/14 28/27/14 30/29/14 29/30/14
f 29/30/15 30/29/15 32/31/15 31/32/15
f 31/32/16 32/31/16 34/33/16 33/34/16
f 33/34/17 34/33/17 36/35/17 35/36/17
f 35/36/18 36/35/18 38/37/18 37/38/18
f 37/38/19 38/37/19 40/39/19 39/40/19
f 39/40/20 40/39/20 42/41/20 41/42/20
f 41/42/21 42/41/21 44/43/21 43/44/21
f 43/44/22 44/43/22 46/45/22 45/46/22
f 45/46/23 46/45/23 48/47/23 47/48/23
f 47/48/24 48/47/24 50/49/24 49/50/24
f 49/50/25 50/49/25 52/51/25 51/52/25
f 51/52/26 52/51/26 54/53/26 53/54/26
f 53/54/27 54/53/27 56/55/27 55/56/27
f 55/56/28 56/55/28 58/57/28 57/58/28
f 57/58/29 58/57/29 60/59/29 59/60/29
f 59/60/30 60/59/30 62/61/30 61/62/30
f 4/63/31 2/64/31 64/65/31 62/66/31 60/67/31 58/68/31 56/69/31 54/70/31 52/71/31 50/72/31 48/73/31 46/74/31 44/75/31 42/76/31 40/77/31 38/78/31 36/79/31 34/80/31 32/81/31 30/82/31 28/83/31 26/84/31 24/85/31 22/86/31 20/87/31 18/88/31 16/89/31 14/90/31 12/91/31 10/92/31 8/93/31 6/94/31
f 61/62/32 62/61/32 64/95/32 63/96/32
f 63/96/33 64/95/33 2/2/33 1/1/33
f 1/97/34 3/98/34 5/99/34 7/100/34 9/101/34 11/102/34 13/103/34 15/104/34 17/105/34 19/106/34 21/107/34 23/108/34 25/109/34 27/110/34 29/111/34 31/112/34 33/113/34 35/114/34 37/115/34 39/116/34 41/117/34 43/118/34 45/119/34 47/120/34 49/121/34 51/122/34 53/123/34 55/124/34 57/125/34 59/126/34 61/127/34 63/128/34
