# Blender v2.78 (sub 0) OBJ File: 'wall.blend'
# www.blender.org
mtllib wall.mtl
o Cube
v 1.000000 -1.000000 -1.000000
v 1.000000 -1.000000 1.000000
v -1.000000 -1.000000 1.000000
v -1.000000 -1.000000 -1.000000
v 1.000000 1.000000 -0.999999
v 0.999999 1.000000 1.000001
v -1.000000 1.000000 1.000000
v -1.000000 1.000000 -1.000000
v 1.000000 0.980000 -0.980000
v 1.000000 -0.980000 -0.980000
v 1.000000 -0.980000 0.980000
v 1.000000 0.980000 0.980000
v 0.980000 0.980000 1.000000
v 0.980000 -0.980000 1.000000
v -0.980000 -0.980000 1.000000
v -0.980000 0.980000 1.000000
v -1.000000 0.980000 0.980000
v -1.000000 -0.980000 0.980000
v -1.000000 -0.980000 -0.980000
v -1.000000 0.980000 -0.980000
v -0.980000 0.980000 -1.000000
v -0.980000 -0.980000 -1.000000
v 0.980000 -0.980000 -1.000000
v 0.980000 0.980000 -1.000000
vt 0.0000 0.6667
vt 0.3333 0.6667
vt 0.3333 1.0000
vt 0.0000 1.0000
vt 0.6667 0.3333
vt 0.6667 0.6667
vt 0.3333 0.6667
vt 0.3333 0.3333
vt 0.0000 0.3333
vt 0.3333 0.3333
vt 0.3300 0.3367
vt 0.0033 0.3367
vt 1.0000 0.3333
vt 0.6667 0.3333
vt 0.6700 0.3300
vt 0.9967 0.3300
vt 0.9967 0.0033
vt 1.0000 0.0000
vt 0.6667 0.0000
vt 0.6700 0.0033
vt 0.0000 0.0000
vt 0.3333 0.0000
vt 0.3300 0.0033
vt 0.0033 0.0033
vt 0.3300 0.6633
vt 0.0033 0.6633
vt 0.0000 0.6667
vt 0.3333 0.6667
vt 0.0033 0.3300
vt 0.0000 0.3333
vt 0.3333 0.3333
vt 0.3300 0.3300
vt 0.6667 0.0000
vt 0.6667 0.3333
vt 0.6633 0.3300
vt 0.6633 0.0033
vt 0.3333 0.3333
vt 0.3367 0.3300
vt 0.3367 0.0033
vt 0.3333 0.0000
vn 0.0000 -1.0000 0.0000
vn 0.0000 1.0000 0.0000
vn 1.0000 0.0000 -0.0000
vn 0.0000 0.0000 -1.0000
vn -1.0000 -0.0000 -0.0000
vn -0.0000 0.0000 1.0000
usemtl Wall
s off
f 1/1/1 2/2/1 3/3/1 4/4/1
f 5/5/2 8/6/2 7/7/2 6/8/2
f 2/9/2 1/10/2 10/11/2 11/12/2
f 5/13/2 1/14/2 23/15/2 24/16/2
f 5/13/2 24/16/2 21/17/2 8/18/2
f 4/19/2 8/18/2 21/17/2 22/20/2
f 8/21/2 4/22/2 19/23/2 20/24/2
f 9/25/2 12/26/2 11/12/2 10/11/2
f 6/27/2 2/9/2 11/12/2 12/26/2
f 6/27/2 12/26/2 9/25/2 5/28/2
f 1/10/2 5/28/2 9/25/2 10/11/2
f 23/15/2 22/20/2 21/17/2 24/16/2
f 8/21/2 20/24/2 17/29/2 7/30/2
f 1/14/2 4/19/2 22/20/2 23/15/2
f 19/23/2 4/22/2 3/31/2 18/32/2
f 3/31/2 7/30/2 17/29/2 18/32/2
f 7/33/2 3/34/2 15/35/2 16/36/2
f 15/35/2 3/34/2 2/37/2 14/38/2
f 13/39/2 14/38/2 2/37/2 6/40/2
f 7/33/2 16/36/2 13/39/2 6/40/2
f 15/35/2 14/38/2 13/39/2 16/36/2
f 20/24/2 19/23/2 18/32/2 17/29/2
